*唯一码,通报行*,贷前/贷后*,来源*,欺诈类型*,信息核实状态*,姓名*,证件类型*,证件号码*,证件号码虚假度,判断依据,手机,手机虚假度,单位名称,单位名称虚假度,单位地址,单位地址虚假度,单位电话,单位电话虚假度,家庭地址,家庭地址虚假度,家庭电话,家庭电话虚假度,申请日期,生成日期,备注
101-10000100,光大,贷前,本行调查,虚假单位,可疑,张正雅,身份证,13359019880527260X,真实,,13941216215,冒用,鞍山福泰贸易,真实,浙江省台州市三门县第十一街区第173号,未确认,03542037290,冒用,黑龙江省齐齐哈尔市建华区第十一街区第91号,不存在,09346721356,不存在,2009/01/28,2013/08/02,
101-10000201,广发,贷前,本行调查,非申请单位员工,可疑,贺昆雄,身份证,328717198107212249,真实,,14036305685,真实,保定市吉利天元,冒用,陕西省洛商市镇安县第二街区第21号,冒用,07450528181,不存在,西藏那曲比如县第十二街区第93号,不存在,05951402519,冒用,2009/07/17,2011/10/13,
101-10000302,华夏,贷后,本行调查,虚假身份,可疑,刘涵梅,身份证,150154197103260817,真实,,13396344909,真实,宁波市江东大衡,冒用,辽宁省本溪市平山区第十五街区第120号,不存在,08939960689,未确认,贵州省黔东南苗族侗族自治州岑巩县第十五街区第27号,真实,08108799949,真实,2010/01/25,2013/02/17,
101-10000403,民生,贷后,本行调查,非申请单位员工,可疑,蒿雁菡,身份证,421114197511089974,真实,,18870617401,真实,广州得利卡销,真实,河北省秦皇岛市北戴河区第九街区第39号,冒用,0206248837,真实,山西省晋城市阳城县第十六街区第40号,冒用,07280008705,冒用,2010/03/11,2014/06/19,
101-10005021,平安,贷前,本行调查,非申请单位员工,可疑,貊泽惠貊泽惠貊泽惠貊泽惠,身份证,354352196806289372,真实,,14778787330,冒用,河池市铁骑销,未确认,河北省承德市双滦区第二街区第78号,冒用,07524163035,冒用,山东省滨州市阳信县第九街区第17号,冒用,03518836567,冒用,2007/03/24,2012/11/19,
101-10000605,兴业,贷后,本行调查,虚假身份,可疑,桥雨文,身份证,111015198907177189,真实,,18000207293,未确认,浙江康达工贸,未确认,安徽省宿州市 墉桥区第七街区第28号,真实,05184171086,不存在,新疆喀什市疏勒县第十六街区第88号,真实,03753676412,真实,2010/03/20,2012/10/18,
101-10007006,中信,贷前,本行调查,非申请单位员工,确认,王岁,身份证,521895197402222850,真实,,13504529005,未确认,浙江省建德市物资,不存在,山西省晋城市沁水县第一街区第119号,真实,05322761488,不存在,西藏拉萨市尼木县第十六街区第200号,不存在,08989943155,未确认,2008/04/07,2014/07/17,
101-10000007,光大,贷后,本行调查,虚假单位,可疑,刘鸿彩,身份证,420458198802208043,真实,,14092195604,真实,临汾市尧嘉贸,未确认,陕西省宝鸡市凤翔县第九街区第3号,不存在,07456703959,真实,福建省宁德市福鼎市第十四街区第150号,冒用,04186596128,未确认,2007/05/26,2013/03/23,
101-10100008,光大,贷前,本行调查,非申请单位员工,可疑,康鹏池,身份证,629442197105178217,真实,,15528079409,真实,辽源市丰达贸服,不存在,云南省玉溪市江川县第九街区第166号,真实,09364499557,冒用,安徽省合肥市肥西县第九街区第109号,冒用,04318950658,不存在,2010/01/15,2011/06/26,
101-10200009,光大,贷后,本行调查,非申请单位员工,确认,刘香露,身份证,622906197502243000,真实,,15301694110,未确认,嘉兴银通销售,未确认,广西省柳州市柳北区第十一街区第18号,真实,04562205954,冒用,黑龙江省牡丹江市西安区第八街区第197号,未确认,09326527643,未确认,2008/02/26,2013/10/01,
